[
  {
    "subtitle": "Webinar",
    "children": [
      {
        "date": "2020-04-24",
        "publication": "Creative Mornings Jakarta",
        "speaker": "Elina Ciptadi",
        "url": "https://creativemornings.com/talks/kawalcovid19",
        "subject": "Finding your Purpose during COVID-19",
        "description": "Memiliki purpose dalam masa pandemi (dalam bahasa Inggris)"
      },
      {
        "date": "2020-04-23",
        "publication": "SAFENet",
        "speaker": "Miki Salman",
        "url": "https://youtu.be/BrA-hsYSRGw?t=179",
        "subject": "Melawan COVID-19 dengan Data Akar Rumput",
        "description": "Peran kunci data dalam pembuatan kebijakan."
      },
      {
        "date": "2020-04-18",
        "publication": "PCI NU",
        "speaker": "Ruly Achdiat",
        "url": "https://www.youtube.com/watch?v=O3eKi7ou_w8&t=5340",
        "subject": "Strategi Pemerintah Indonesia dan Kisah Tenaga Medis",
        "description": "Pemerintah seharusnya menggunakan masa pandemik ini untuk memberbaiki Infrademics (Infrastructure Epidemics) Indonesia"
      },
      {
        "date": "2020-04-11",
        "publication": "PCI NU",
        "speaker": "Ruly Achdiat",
        "url": "https://docs.google.com/presentation/d/1W7-NCGGZCHlVDOmtPt8QvSNuWCRsH0A3wNos4c3rOp4/edit#slide=id.p",
        "subject": "Membaca Pandemic dengan data.",
        "description": "Apa yang bisa Indonesia pelajari dari negara-negara lain."
      },
      {
        "date": "2020-03-29",
        "publication": "Facebook DeveloperC Malang",
        "speaker": "Zain Fathoni",
        "url": "https://www.youtube.com/watch?v=-YO8wDTGRrU",
        "subject": "How Software Engineers Can Stay Productive During COVID-19 Pandemic",
        "description": "Sejarah singkat dan cara kerja tim KawalCOVID19"
      },
      {
        "date": "2020-03-19",
        "publication": "CISDI",
        "speaker": "Miki Salman",
        "url": "https://www.youtube.com/watch?reload=9&v=BhvtLwnLxes&t=143s",
        "subject": "Partisipasi Masyarakat Sipil Hadapi COVID-19",
        "description": "Pentingnya data dalam membuat kebijakan dan informational leadership."
      }
    ]
  },
  {
    "subtitle": "Podcast",
    "children": [
      {
        "date": "2020-04-10",
        "publication": "Ceritanya Developer",
        "speaker": "Zain Fathoni",
        "url": "https://open.spotify.com/episode/7xbVZRPARDp2V9cQ1xdaqF",
        "description": "Sejarah singkat dan cara kerja tim KawalCOVID19"
      }
    ]
  },
  {
    "subtitle": "Diskusi Publik",
    "children": [
      {
        "date": "2020-03-09",
        "publication": "Mafindo dan Kominfo",
        "speaker": "Miki Salman",
        "url": "https://www.kominfo.go.id/galeri/24935/diskusi-publik-hoaks-virus-corona-strategi-dan-mitigasi-krisis-informasi-ruang-anantakupa-kemkominfo-jakarta",
        "subject": "Hoaks Virus Corona: Strategi & Mitigasi Krisis Informasi",
        "description": "Pentingnya transparansi data dalam informasi publik untuk melawan hoax dan informational leadership. "
      }
    ]
  },
  {
    "subtitle": "Media Cetak",
    "children": [
      {
        "date": "2020-04-27",
        "publication": "Kabar24 Bisnis.com",
        "speaker": "Elina Ciptadi",
        "subject": "Cegah Penyebaran Covid-19, Ini 5 Hal yang Bisa Dilakukan Pemerintah",
        "url": "https://kabar24.bisnis.com/read/20200427/15/1232907/cegah-penyebaran-covid-19-ini-5-hal-yang-bisa-dilakukan-pemerintah"
      },
      {
        "date": "2020-04-23",
        "publication": "Jawa Pos",
        "subject": "Inisiator KawalCovid19.id Sebut Banyak Negara Berhasil dengan Lockdown",
        "url": "https://www.jawapos.com/nasional/23/04/2020/inisiator-kawalcovid19-id-sebut-banyak-negara-berhasil-dengan-lockdown/"
      },
      {
        "date": "2020-04-20",
        "publication": "Cyberthreat.id",
        "speaker": "Ruly Achdiat",
        "url": "https://cyberthreat.id/read/6314/Positif-Covid-19-Sudah-6760-Orang-Instruksi-Jokowi-Soal-Data-Terpadu-Belum-Diterapkan",
        "subject": "Dashboard dan Data Spasial Epidemics",
        "description": "Pemerintah seharusnya menggunakan masa pandemik ini untuk memperbaiki infrademics Infrastructure Epidemics) Indonesia."
      },
      {
        "date": "2020-04-20",
        "publication": "Lokadata.id",
        "speaker": "Miki Salman",
        "url": "https://lokadata.id/artikel/percuma-psbb-jika-warga-dan-aparat-tak-serius",
        "description": "Penegakan PSBB harus ditingkatkan agar dapat menekan kurva wabah dengan segera dan menuntaskan persoalan."
      },
      {
        "date": "2020-04-14",
        "publication": "The Jakarta Post",
        "subject": "COVID-19 monitoring group wants government to adop best practices",
        "url": "https://www.thejakartapost.com/life/2020/04/14/covid-19-monitoring-groups-want-govt-to-adopt-best-practices.html"
      },
      {
        "date": "2020-03-29",
        "publication": "The Jakarta Post",
        "subject": "KawalCOVID-19 volunteers call for regional quarantines as crisis looms",
        "url": "https://www.thejakartapost.com/news/2020/03/29/kawalcovid-19-volunteers-call-for-regional-quarantines-as-crisis-looms.html"
      },
      {
        "date": "2020-03-06",
        "publication": "Kompas.com",
        "subject": "Pantau Informasi Virus Corona di Indonesia Lewat Situs KawalCOVID19.id",
        "url": "https://tekno.kompas.com/read/2020/03/05/12561367/pantau-informasi-virus-corona-di-indonesia-lewat-situs-kawalcovid19id"
      }
    ]
  },
  {
    "subtitle": "Radio",
    "children": [
      {
        "date": "2020-03-24",
        "publication": "GenFM Radio Surabaya",
        "speaker": "Dr.Dewindra Widiamurti",
        "subject": "Informasi Dasar Mengenai COVID-19 dan Pencegahannya",
        "description": "Masa inkubasi, cara penularan, pengobatan valid sampai saat ini. Tidak membeli masker medis yang akan membahayakan petugas kesehatan. Anjuran untuk tetap di rumah saja dan jaga jarak dengan orang lain bila terpaksa keluar, akan memutus rantai penularan. Cuci tangan dengan sabun dan hand sanitizer berbasis alkohol 70%."
      },
      {
        "date": "2020-03-24",
        "publication": "Global FM Radio Surabaya",
        "speaker": "Dr.Dewindra Widiamurti",
        "subject": "Informasi Dasar Mengenai COVID-19 dan Pencegahannya",
        "description": "Masa inkubasi, cara penularan, pengobatan valid sampai saat ini. Tidak membeli masker medis yang akan membahayakan petugas kesehatan. Anjuran untuk tetap di rumah saja dan jaga jarak dengan orang lain bila terpaksa keluar, akan memutus rantai penularan. Cuci tangan dengan sabun dan hand sanitizer berbasis alkohol 70%."
      }
    ]
  }
]
